…
frq_category %>% ggplot(aes(x="",y=count,fill=category)) + geom_bar(stat="identity", width=1, color="black") +
  coord_polar("y", start=0)+ theme_void() + geom_text(aes(label = count),
  position = position_stack(vjust = 0.55))
```

## Part 3: Transform data with dplyr and finding insight the data

### 1.) List all state and city without duplicate and order state by descending.
```R
superstore %>% select(State, City) %>% distinct() %>% arrange(desc(State))
```
**Result:**
```
# A tibble: 600 x 2
   State     City      
   <chr>     <chr>     
 1 Wyoming   Cheyenne  
 2 Wisconsin Madison   
 3 Wisconsin Franklin  
 4 Wisconsin Green Bay 
 5 Wisconsin Milwaukee 
 6 Wisconsin Appleton  
 7 Wisconsin Kenosha   
 8 Wisconsin Waukesha  
 9 Wisconsin Eau Claire
10 Wisconsin West Allis
# ... with 590 more rows
```
**Explain ->** The result shows that there are 600 cities in superstore dataset.

### 2.)  List all product name that have sales more than or equal to 100 without duplicate
```R
superstore %>% filter(Sales >= 100) %>% select(`Product Name`) %>% distinct()
```
**Result:**
```
# A tibble: 970 x 1
   `Product Name`                                                     
   <chr>                                                              
 1 "Bush Somerset Collection Bookcase"                                
 2 "Hon Deluxe Fabric Upholstered Stacking Chairs, Rounded Back"      
 3 "Bretford CR4500 Series Slim Rectangular Table"                    
 4 "Mitel 5320 IP Phone VoIP phone"                                   
 5 "Belkin F5C206VTEL 6 Outlet Surge"                                 
 6 "Chromcraft Rectangular Conference Tables"                         
 7 "Konftel 250 Conference phone - Charcoal black"                    
 8 "Fellowes PB200 Plastic Comb Binding Machine"                      
 9 "Stur-D-Stor Shelving, Vertical 5-Shelf: 72\"H x 36\"W x 18 1/2\"D"
10 "Cisco SPA 501G IP Phone"                                          
# ... with 960 more rows
```
…
### 6.) List all state, average_sales and order average_sales by descending.
```R
superstore %>% group_by(State) %>% select(State, Sales) %>% summarise(average_sale = mean(Sales)) %>% arrange(desc(average_sale))
```
**Result:**
```
# A tibble: 49 x 2
   State        average_sale
   <chr>               <dbl>
 1 Wyoming             1603.
 2 Vermont              812.
 3 Nevada               429.
 4 Rhode Island         410.
 5 Montana              373.
 6 Indiana              361.
 7 Missouri             336.
 8 Minnesota            336.
 9 Alabama              320.
10 Virginia             315.
# ... with 39 more rows
```
…
